%YAML 1.1
%TAG !u! tag:unity3d.com,2011:
--- !u!1045 &1
EditorBuildSettings:
  m_ObjectHideFlags: 0
  serializedVersion: 2
  m_Scenes:
  - enabled: 1
    path: Assets/Scenes/Menu.unity
    guid: 73b642a643e1747a1b72e02a548fdf8c
  - enabled: 0
    path: Assets/Scenes/SampleScene.unity
    guid: 2cda990e2423bbf4892e6590ba056729
  - enabled: 1
    path: Assets/Scenes/Intro.unity
    guid: 185b95ea9e475401083da03db0fbc385
  - enabled: 1
    path: Assets/Cartella per Marco/paolo.unity
    guid: ac1cd98eecb06364b84a7e0bee5c3a3e
  m_configObjects: {}
